{
  "categories": [
    {
      "title": "All",
      "id": 0,
      "img": "category/category.png"
    },
    {
      "title": "meal",
      "id": 1,
      "img": "category/category.png"
    },
    {
      "title": "drinks",
      "id": 2,
      "img": "category/category.png"
    },
    {
      "title": "salads",
      "id": 3,
      "img": "category/category.png"
    },
    {
      "title": "soups",
      "id": 4,
      "img": "category/category.png"
    },
    {
      "title": "sweats",
      "id": 5,
      "img": "category/category.png"
    }
  ],
  "products": [
    {
      "catId": 1,
      "title": "Palow 1",
      "description": "description for the first product",
      "rating": 3.125,
      "ratersQty": 8,
      "oldPrice": 1,
      "discount": 15,
      "price": "12",
      "types": "",
      "img": "product/product.png",
      "id": 2
    },
    {
      "catId": 1,
      "title": "Somsa 2",
      "description": "description for the second product",
      "rating": 5,
      "ratersQty": 1,
      "oldPrice": "12",
      "discount": "15",
      "price": "152",
      "types": "",
      "img": "product/product.png",
      "id": 3
    },
    {
      "catId": 1,
      "title": "Manty",
      "description": "description for the third product",
      "rating": 3.6666666666666665,
      "ratersQty": 3,
      "oldPrice": 1,
      "discount": 15,
      "price": 20,
      "types": "",
      "img": "product/product.png",
      "id": 4
    },
    {
      "catId": 4,
      "title": "Merjimek",
      "description": "description of Merjimek",
      "rating": 4,
      "ratersQty": 1,
      "oldPrice": 1,
      "discount": 15,
      "price": 11,
      "types": "",
      "img": "product/product.png",
      "id": 8
    },
    {
      "catId": 4,
      "title": "Corba",
      "description": "description of Corba",
      "rating": 2,
      "ratersQty": 1,
      "oldPrice": 1,
      "discount": 15,
      "price": 12,
      "types": "",
      "img": "product/product.png",
      "id": 9
    },
    {
      "catId": 4,
      "title": "Un aş",
      "description": "description of Un aş",
      "rating": 4,
      "ratersQty": 1,
      "oldPrice": 1,
      "discount": 15,
      "price": 15,
      "types": "",
      "img": "product/product.png",
      "id": 10
    }
  ],
  "orders": [
    {
      "productList": [
        {
          "catId": 1,
          "title": "Palow",
          "description": "description for the first product",
          "price": 10,
          "old_price": 20.3,
          "discount": 15,
          "img": "product/product.png",
          "imgList": [],
          "types": [
            1,
            2,
            3
          ],
          "rating": 2.9473684210526314,
          "ratersQty": 38,
          "id": 2,
          "qty": 1,
          "totalPrice": 10
        },
        {
          "catId": 1,
          "title": "Somsa",
          "description": "description for the seçond product",
          "price": 15,
          "types": [
            1,
            2,
            3
          ],
          "rating": 3.5,
          "ratersQty": 2,
          "old_price": 20.3,
          "discount": 15,
          "img": "product/product.png",
          "imgList": [],
          "id": 3,
          "qty": 1,
          "totalPrice": 15
        }
      ],
      "totalSum": 37,
      "date": "2023-02-14T14:19:52.966Z",
      "id": 1
    },
    {
      "productList": [
        {
          "catId": 1,
          "title": "Palow",
          "description": "description for the first product",
          "rating": 2.857142857142857,
          "ratersQty": 7,
          "oldPrice": 1,
          "discount": 15,
          "price": 10,
          "types": "",
          "img": "product/product.png",
          "id": 2,
          "qty": 5,
          "totalPrice": 50
        }
      ],
      "totalSum": 62,
      "date": "2023-02-14T15:02:17.799Z",
      "id": 2
    },
    {
      "productList": [
        {
          "catId": 1,
          "title": "Palow",
          "description": "description for the first product",
          "rating": 2.857142857142857,
          "ratersQty": 7,
          "oldPrice": 1,
          "discount": 15,
          "price": 10,
          "types": "",
          "img": "product/product.png",
          "id": 2,
          "qty": 3,
          "totalPrice": 30
        },
        {
          "catId": 1,
          "title": "Somsa",
          "description": "description for the seçond product",
          "rating": 0,
          "ratersQty": 0,
          "oldPrice": 1,
          "discount": 15,
          "price": 15,
          "types": "",
          "img": "product/product.png",
          "id": 3,
          "qty": 3,
          "totalPrice": 45
        }
      ],
      "totalSum": 87,
      "date": "2023-02-14T15:02:43.222Z",
      "id": 3
    },
    {
      "productList": [
        {
          "catId": 1,
          "title": "Somsa 2",
          "description": "description for the second product",
          "rating": 0,
          "ratersQty": 0,
          "oldPrice": "12",
          "discount": "15",
          "price": "152",
          "types": "",
          "img": "product/product.png",
          "id": 3,
          "qty": 3,
          "totalPrice": 456
        },
        {
          "catId": 1,
          "title": "Palow 1",
          "description": "description for the first product",
          "rating": 3.125,
          "ratersQty": 8,
          "oldPrice": 1,
          "discount": 15,
          "price": "12",
          "types": "",
          "img": "product/product.png",
          "id": 2,
          "qty": 1,
          "totalPrice": "12"
        }
      ],
      "totalSum": "4561212",
      "date": "2023-03-01T15:33:23.673Z",
      "id": 4
    }
  ],
  "types": [],
  "user": {
    "name": "Dovlet",
    "email": "dovlet@postman.com",
    "password": "123",
    "token": "token123"
  }
}